<?xml version="1.0" encoding="utf-8"?>
<!-- Generator: Adobe Illustrator 16.0.0, SVG Export Plug-In . SVG Version: 6.00 Build 0)  -->
<!DOCTYPE svg PUBLIC "-//W3C//DTD SVG 1.1//EN" "http://www.w3.org/Graphics/SVG/1.1/DTD/svg11.dtd">
<svg version="1.1" id="Layer_1" xmlns="http://www.w3.org/2000/svg" xmlns:xlink="http://www.w3.org/1999/xlink" x="0px" y="0px"
	 width="140px" height="38.252px" viewBox="0 0 140 38.252" enable-background="new 0 0 140 38.252" xml:space="preserve">
<g>
	<defs>
		<rect id="SVGID_1_" width="140" height="38.252"/>
	</defs>
	<clipPath id="SVGID_2_">
		<use xlink:href="#SVGID_1_"  overflow="visible"/>
	</clipPath>
	<path clip-path="url(#SVGID_2_)" fill="#0000FF" d="M40.04,9.839c-0.612,0-1.21,0.062-1.787,0.179v18.367h3.574V10.02
		C41.239,9.901,40.64,9.839,40.04,9.839"/>
	<path clip-path="url(#SVGID_2_)" fill="#0000FF" d="M54.813,9.441c-2.025,0-4.686,0.953-5.798,3.178v-2.599
		c-0.588-0.12-1.207-0.182-1.807-0.182c-0.612,0-1.229,0.062-1.807,0.179v18.367h3.614V18.377c0-3.932,2.621-5.401,5.242-5.401
		c2.541,0,4.091,1.827,4.091,4.925v10.483h3.614V17.663C61.962,12.46,59.42,9.441,54.813,9.441"/>
	<path clip-path="url(#SVGID_2_)" fill="#0000FF" d="M74.153,9.441c2.82,0,5.401,1.072,7.148,2.979l-2.74,2.303
		c-1.112-1.111-2.7-1.747-4.408-1.747c-3.336,0-6.234,2.343-6.234,6.076c0,3.732,2.898,6.234,6.234,6.234
		c1.708,0,3.296-0.675,4.408-1.825l2.78,2.302c-1.748,1.907-4.329,3.019-7.188,3.019c-5.282,0-9.809-3.853-9.809-9.729
		C64.345,13.174,68.872,9.441,74.153,9.441"/>
	<path clip-path="url(#SVGID_2_)" fill="#0000FF" d="M84.121,14.168c0.278-2.7,3.139-4.727,6.436-4.727
		c3.136,0,6.115,1.47,6.433,5.243h-3.455c-0.2-1.39-1.47-2.105-2.899-2.105c-1.35,0-2.502,0.675-2.78,1.668
		c-0.158,0.596-0.158,1.032,0.04,1.47c0.357,0.755,1.23,1.151,2.185,1.429l2.74,0.675c3.853,0.953,4.805,3.296,4.805,5.402
		c0,3.454-3.336,5.559-7.188,5.559c-3.336,0-6.791-2.145-6.911-5.957h3.297c0.119,0.794,0.635,1.668,1.509,2.104
		c0.794,0.478,1.748,0.716,2.939,0.636c1.668-0.119,2.78-1.072,2.819-2.422c0.039-1.352-1.111-2.026-2.463-2.344l-2.542-0.596
		C85.71,19.29,83.805,17.583,84.121,14.168"/>
	<path clip-path="url(#SVGID_2_)" fill="#0000FF" d="M130.31,25.249c-3.296,0-6.157-2.266-6.157-6.196
		c0-3.971,3.179-6.076,6.157-6.076c3.336,0,5.997,2.383,5.997,6.076C136.307,22.707,133.646,25.249,130.31,25.249 M130.627,9.441
		c-2.7,0-5.282,1.072-6.513,3.178V0.181C123.525,0.063,122.907,0,122.307,0c-0.613,0-1.229,0.061-1.807,0.178v28.206h3.614v-2.859
		c1.23,2.104,3.892,3.257,6.473,3.257c5.084,0,9.413-3.813,9.413-9.69C140,13.174,135.75,9.441,130.627,9.441"/>
	<path clip-path="url(#SVGID_2_)" fill="#0000FF" d="M115.119,9.839c-0.612,0-1.229,0.062-1.808,0.179v9.829
		c0,3.971-2.62,5.4-5.242,5.4c-2.541,0-4.052-1.826-4.052-4.924V10.02c-0.587-0.119-1.207-0.181-1.807-0.181
		c-0.612,0-1.229,0.062-1.807,0.179l0.001,10.544c-0.04,5.202,2.502,8.22,7.148,8.22c2.025,0,4.646-0.953,5.758-3.176v2.778h3.614
		V10.02C116.338,9.901,115.72,9.839,115.119,9.839"/>
	<path clip-path="url(#SVGID_2_)" fill="#0000FF" d="M10.93,27.244c-2.17-0.443-4.154-1.406-5.818-2.752
		C1.995,21.971,0,18.099,0,13.76C0,6.16,6.117,0,13.662,0s13.662,6.16,13.662,13.76h-5.112c-1.664-1.347-3.647-2.309-5.818-2.752
		c-0.882-0.181-1.796-0.276-2.732-0.276s-1.849,0.095-2.732,0.276V27.244z"/>
	<path clip-path="url(#SVGID_2_)" fill="#0000FF" d="M16.394,11.008c2.17,0.443,4.154,1.406,5.818,2.752
		c3.117,2.522,5.111,6.393,5.111,10.732c0,7.6-6.116,13.76-13.661,13.76C6.117,38.252,0,32.092,0,24.492h5.112
		c1.663,1.347,3.647,2.309,5.818,2.752c0.882,0.181,1.796,0.275,2.732,0.275c0.936,0,1.849-0.095,2.732-0.275V11.008z"/>
</g>
</svg>
